Biostatistics Day 4
…
Code

ebola_data <- read_xlsx('Ebola_Sierra Leone.xlsx') %>% 
  mutate(gender       = if_else(sex == 1, "female", 
                          if_else(sex == 2, "male", 
                                  NA_character_)),
         ebola_status = if_else(status == 0, "negative", 
                          if_else(status == 1, "positive", 
                                  NA_character_)))

ebola_data

# A tibble: 11,903 × 10
      id   age   sex status date_of_onset       date_of_sample      district
   <dbl> <dbl> <dbl>  <dbl> <dttm>              <dttm>              <chr>   
 1     1    20     1      1 2014-05-18 00:00:00 2014-05-23 00:00:00 Kailahun
 2     2    42     1      1 2014-05-20 00:00:00 2014-05-25 00:00:00 Kailahun
 3     3    45     1      1 2014-05-20 00:00:00 2014-05-25 00:00:00 Kailahun
 4     4    15     1      1 2014-05-21 00:00:00 2014-05-26 00:00:00 Kailahun
 5     5    19     1      1 2014-05-21 00:00:00 2014-05-26 00:00:00 Kailahun
 6     6    55     1      1 2014-05-21 00:00:00 2014-05-26 00:00:00 Kailahun
 7     7    50     1      1 2014-05-21 00:00:00 2014-05-26 00:00:00 Kailahun
 8     8     8     1      1 2014-05-22 00:00:00 2014-05-27 00:00:00 Kailahun
 9     9    54     1      1 2014-05-22 00:00:00 2014-05-27 00:00:00 Kailahun
10    10    57     1      1 2014-05-22 00:00:00 2014-05-27 00:00:00 Kailahun
# ℹ 11,893 more rows
# ℹ 3 more variables: chiefdom <chr>, gender <chr>, ebola_status <chr>
…
